{
  "project_info": {
    "project_number": "515807567140",
    "firebase_url": "https://fit-storage.firebaseio.com",
    "project_id": "fit-storage",
    "storage_bucket": "fit-storage.appspot.com"
  },
  "client": [
    {
      "client_info": {
        "mobilesdk_app_id": "1:515807567140:android:035db1f93001fea98f27b1",
        "android_client_info": {
          "package_name": "com.jkta.fitstorage"
        }
      },
      "oauth_client": [
        {
          "client_id": "515807567140-f9ibhg4akun62rdthfunqfe173hh7hhb.apps.googleusercontent.com",
          "client_type": 1,
          "android_info": {
            "package_name": "com.jkta.fitstorage",
            "certificate_hash": "1f9803dae065e34bab231a7f236c0fea380b806d"
          }
        },
        {
          "client_id": "515807567140-03blqtv9fei0g19gjlrejo9kj570qfu7.apps.googleusercontent.com",
          "client_type": 3
        }
      ],
      "api_key": [
        {
          "current_key": "AIzaSyDipDwAqj6Gu6seoK5VzvMAGUYw2l_dOMw"
        }
      ],
      "services": {
        "appinvite_service": {
          "other_platform_oauth_client": [
            {
              "client_id": "515807567140-03blqtv9fei0g19gjlrejo9kj570qfu7.apps.googleusercontent.com",
              "client_type": 3
            }
          ]
        }
      }
    }
  ],
  "configuration_version": "1"
}